`Set_Chapa\S__RADIO_DOBLADO` (mm)	2.4000000000000004
`Set_Chapa\S__ANCHO_ANILLO_EXTERNO` (mm)	12.7516875
`Set_Chapa\S__RADIO_DE_ACUERDO_INTERNO` (mm)	3.0000000000000004
`Set_Chapa\S__ANCHO_NERVIOS` (mm)	30.0
`Set_Chapa\S__RADIO_CIRCULO_INT` (mm)	27.936
`Set_Chapa\S__LADO_CUADRADOS_SOPORTE` (mm)	60.0
`Set_Chapa\S__ANCHO_PESTANHA` (mm)	30.0
